Gemeentecode,GemeentecodeGM,Gemeentenaam,Provinciecode,ProvinciecodePV,Provincienaam
1680,GM1680,Aa en Hunze,22,PV22,Drenthe
0738,GM0738,Aalburg,30,PV30,Noord-Brabant
0358,GM0358,Aalsmeer,27,PV27,Noord-Holland
0197,GM0197,Aalten,25,PV25,Gelderland
0059,GM0059,Achtkarspelen,21,PV21,Friesland
0482,GM0482,Alblasserdam,28,PV28,Zuid-Holland
0613,GM0613,Albrandswaard,28,PV28,Zuid-Holland
0361,GM0361,Alkmaar,27,PV27,Noord-Holland
0141,GM0141,Almelo,23,PV23,Overijssel
0034,GM0034,Almere,24,PV24,Flevoland
0484,GM0484,Alphen aan den Rijn,28,PV28,Zuid-Holland
1723,GM1723,Alphen-Chaam,30,PV30,Noord-Brabant
0060,GM0060,Ameland,21,PV21,Friesland
0307,GM0307,Amersfoort,26,PV26,Utrecht
0362,GM0362,Amstelveen,27,PV27,Noord-Holland
0363,GM0363,Amsterdam,27,PV27,Noord-Holland
0200,GM0200,Apeldoorn,25,PV25,Gelderland
0003,GM0003,Appingedam,20,PV20,Groningen
0202,GM0202,Arnhem,25,PV25,Gelderland
0106,GM0106,Assen,22,PV22,Drenthe
0743,GM0743,Asten,30,PV30,Noord-Brabant
0744,GM0744,Baarle-Nassau,30,PV30,Noord-Brabant
0308,GM0308,Baarn,26,PV26,Utrecht
0489,GM0489,Barendrecht,28,PV28,Zuid-Holland
0203,GM0203,Barneveld,25,PV25,Gelderland
0005,GM0005,Bedum,20,PV20,Groningen
0888,GM0888,Beek,31,PV31,Limburg
0370,GM0370,Beemster,27,PV27,Noord-Holland
0889,GM0889,Beesel,31,PV31,Limburg
1945,GM1945,Berg en Dal,25,PV25,Gelderland
1724,GM1724,Bergeijk,30,PV30,Noord-Brabant
0893,GM0893,Bergen (L.),31,PV31,Limburg
0373,GM0373,Bergen (NH.),27,PV27,Noord-Holland
0748,GM0748,Bergen op Zoom,30,PV30,Noord-Brabant
1859,GM1859,Berkelland,25,PV25,Gelderland
1721,GM1721,Bernheze,30,PV30,Noord-Brabant
0753,GM0753,Best,30,PV30,Noord-Brabant
0209,GM0209,Beuningen,25,PV25,Gelderland
0375,GM0375,Beverwijk,27,PV27,Noord-Holland
0310,GM0310,De Bilt,26,PV26,Utrecht
0585,GM0585,Binnenmaas,28,PV28,Zuid-Holland
1728,GM1728,Bladel,30,PV30,Noord-Brabant
0376,GM0376,Blaricum,27,PV27,Noord-Holland
0377,GM0377,Bloemendaal,27,PV27,Noord-Holland
1901,GM1901,Bodegraven-Reeuwijk,28,PV28,Zuid-Holland
0755,GM0755,Boekel,30,PV30,Noord-Brabant
0009,GM0009,Ten Boer,20,PV20,Groningen
1681,GM1681,Borger-Odoorn,22,PV22,Drenthe
0147,GM0147,Borne,23,PV23,Overijssel
0654,GM0654,Borsele,29,PV29,Zeeland
0756,GM0756,Boxmeer,30,PV30,Noord-Brabant
0757,GM0757,Boxtel,30,PV30,Noord-Brabant
0758,GM0758,Breda,30,PV30,Noord-Brabant
0501,GM0501,Brielle,28,PV28,Zuid-Holland
1876,GM1876,Bronckhorst,25,PV25,Gelderland
0213,GM0213,Brummen,25,PV25,Gelderland
0899,GM0899,Brunssum,31,PV31,Limburg
0312,GM0312,Bunnik,26,PV26,Utrecht
0313,GM0313,Bunschoten,26,PV26,Utrecht
0214,GM0214,Buren,25,PV25,Gelderland
0502,GM0502,Capelle aan den IJssel,28,PV28,Zuid-Holland
0383,GM0383,Castricum,27,PV27,Noord-Holland
0109,GM0109,Coevorden,22,PV22,Drenthe
1706,GM1706,Cranendonck,30,PV30,Noord-Brabant
0611,GM0611,Cromstrijen,28,PV28,Zuid-Holland
1684,GM1684,Cuijk,30,PV30,Noord-Brabant
0216,GM0216,Culemborg,25,PV25,Gelderland
0148,GM0148,Dalfsen,23,PV23,Overijssel
1891,GM1891,Dantumadiel,21,PV21,Friesland
0503,GM0503,Delft,28,PV28,Zuid-Holland
0010,GM0010,Delfzijl,20,PV20,Groningen
0762,GM0762,Deurne,30,PV30,Noord-Brabant
0150,GM0150,Deventer,23,PV23,Overijssel
0384,GM0384,Diemen,27,PV27,Noord-Holland
1774,GM1774,Dinkelland,23,PV23,Overijssel
0221,GM0221,Doesburg,25,PV25,Gelderland
0222,GM0222,Doetinchem,25,PV25,Gelderland
0766,GM0766,Dongen,30,PV30,Noord-Brabant
0058,GM0058,Dongeradeel,21,PV21,Friesland
0505,GM0505,Dordrecht,28,PV28,Zuid-Holland
0498,GM0498,Drechterland,27,PV27,Noord-Holland
1719,GM1719,Drimmelen,30,PV30,Noord-Brabant
0303,GM0303,Dronten,24,PV24,Flevoland
0225,GM0225,Druten,25,PV25,Gelderland
0226,GM0226,Duiven,25,PV25,Gelderland
1711,GM1711,Echt-Susteren,31,PV31,Limburg
0385,GM0385,Edam-Volendam,27,PV27,Noord-Holland
0228,GM0228,Ede,25,PV25,Gelderland
0317,GM0317,Eemnes,26,PV26,Utrecht
1651,GM1651,Eemsmond,20,PV20,Groningen
0770,GM0770,Eersel,30,PV30,Noord-Brabant
1903,GM1903,Eijsden-Margraten,31,PV31,Limburg
0772,GM0772,Eindhoven,30,PV30,Noord-Brabant
0230,GM0230,Elburg,25,PV25,Gelderland
0114,GM0114,Emmen,22,PV22,Drenthe
0388,GM0388,Enkhuizen,27,PV27,Noord-Holland
0153,GM0153,Enschede,23,PV23,Overijssel
0232,GM0232,Epe,25,PV25,Gelderland
0233,GM0233,Ermelo,25,PV25,Gelderland
0777,GM0777,Etten-Leur,30,PV30,Noord-Brabant
1722,GM1722,Ferwerderadiel,21,PV21,Friesland
1940,GM1940,De Fryske Marren,21,PV21,Friesland
0779,GM0779,Geertruidenberg,30,PV30,Noord-Brabant
0236,GM0236,Geldermalsen,25,PV25,Gelderland
1771,GM1771,Geldrop-Mierlo,30,PV30,Noord-Brabant
1652,GM1652,Gemert-Bakel,30,PV30,Noord-Brabant
0907,GM0907,Gennep,31,PV31,Limburg
0689,GM0689,Giessenlanden,28,PV28,Zuid-Holland
0784,GM0784,Gilze en Rijen,30,PV30,Noord-Brabant
1924,GM1924,Goeree-Overflakkee,28,PV28,Zuid-Holland
0664,GM0664,Goes,29,PV29,Zeeland
0785,GM0785,Goirle,30,PV30,Noord-Brabant
1942,GM1942,Gooise Meren,27,PV27,Noord-Holland
0512,GM0512,Gorinchem,28,PV28,Zuid-Holland
0513,GM0513,Gouda,28,PV28,Zuid-Holland
0786,GM0786,Grave,30,PV30,Noord-Brabant
0518,GM0518,'s-Gravenhage,28,PV28,Zuid-Holland
0014,GM0014,Groningen,20,PV20,Groningen
0015,GM0015,Grootegast,20,PV20,Groningen
1729,GM1729,Gulpen-Wittem,31,PV31,Limburg
0158,GM0158,Haaksbergen,23,PV23,Overijssel
0788,GM0788,Haaren,30,PV30,Noord-Brabant
0392,GM0392,Haarlem,27,PV27,Noord-Holland
0393,GM0393,Haarlemmerliede en Spaarnwoude,27,PV27,Noord-Holland
0394,GM0394,Haarlemmermeer,27,PV27,Noord-Holland
1655,GM1655,Halderberge,30,PV30,Noord-Brabant
0160,GM0160,Hardenberg,23,PV23,Overijssel
0243,GM0243,Harderwijk,25,PV25,Gelderland
0523,GM0523,Hardinxveld-Giessendam,28,PV28,Zuid-Holland
0017,GM0017,Haren,20,PV20,Groningen
0072,GM0072,Harlingen,21,PV21,Friesland
0244,GM0244,Hattem,25,PV25,Gelderland
0396,GM0396,Heemskerk,27,PV27,Noord-Holland
0397,GM0397,Heemstede,27,PV27,Noord-Holland
0246,GM0246,Heerde,25,PV25,Gelderland
0074,GM0074,Heerenveen,21,PV21,Friesland
0398,GM0398,Heerhugowaard,27,PV27,Noord-Holland
0917,GM0917,Heerlen,31,PV31,Limburg
1658,GM1658,Heeze-Leende,30,PV30,Noord-Brabant
0399,GM0399,Heiloo,27,PV27,Noord-Holland
0400,GM0400,Den Helder,27,PV27,Noord-Holland
0163,GM0163,Hellendoorn,23,PV23,Overijssel
0530,GM0530,Hellevoetsluis,28,PV28,Zuid-Holland
0794,GM0794,Helmond,30,PV30,Noord-Brabant
0531,GM0531,Hendrik-Ido-Ambacht,28,PV28,Zuid-Holland
0164,GM0164,Hengelo,23,PV23,Overijssel
0796,GM0796,'s-Hertogenbosch,30,PV30,Noord-Brabant
0252,GM0252,Heumen,25,PV25,Gelderland
0797,GM0797,Heusden,30,PV30,Noord-Brabant
0534,GM0534,Hillegom,28,PV28,Zuid-Holland
0798,GM0798,Hilvarenbeek,30,PV30,Noord-Brabant
0402,GM0402,Hilversum,27,PV27,Noord-Holland
1735,GM1735,Hof van Twente,23,PV23,Overijssel
1911,GM1911,Hollands Kroon,27,PV27,Noord-Holland
0118,GM0118,Hoogeveen,22,PV22,Drenthe
0405,GM0405,Hoorn,27,PV27,Noord-Holland
1507,GM1507,Horst aan de Maas,31,PV31,Limburg
0321,GM0321,Houten,26,PV26,Utrecht
0406,GM0406,Huizen,27,PV27,Noord-Holland
0677,GM0677,Hulst,29,PV29,Zeeland
0353,GM0353,IJsselstein,26,PV26,Utrecht
1884,GM1884,Kaag en Braassem,28,PV28,Zuid-Holland
0166,GM0166,Kampen,23,PV23,Overijssel
0678,GM0678,Kapelle,29,PV29,Zeeland
0537,GM0537,Katwijk,28,PV28,Zuid-Holland
0928,GM0928,Kerkrade,31,PV31,Limburg
1598,GM1598,Koggenland,27,PV27,Noord-Holland
0079,GM0079,Kollumerland en Nieuwkruisland,21,PV21,Friesland
0588,GM0588,Korendijk,28,PV28,Zuid-Holland
0542,GM0542,Krimpen aan den IJssel,28,PV28,Zuid-Holland
1931,GM1931,Krimpenerwaard,28,PV28,Zuid-Holland
1659,GM1659,Laarbeek,30,PV30,Noord-Brabant
1685,GM1685,Landerd,30,PV30,Noord-Brabant
0882,GM0882,Landgraaf,31,PV31,Limburg
0415,GM0415,Landsmeer,27,PV27,Noord-Holland
0416,GM0416,Langedijk,27,PV27,Noord-Holland
1621,GM1621,Lansingerland,28,PV28,Zuid-Holland
0417,GM0417,Laren,27,PV27,Noord-Holland
0022,GM0022,Leek,20,PV20,Groningen
0545,GM0545,Leerdam,28,PV28,Zuid-Holland
0080,GM0080,Leeuwarden,21,PV21,Friesland
0546,GM0546,Leiden,28,PV28,Zuid-Holland
0547,GM0547,Leiderdorp,28,PV28,Zuid-Holland
1916,GM1916,Leidschendam-Voorburg,28,PV28,Zuid-Holland
0995,GM0995,Lelystad,24,PV24,Flevoland
1640,GM1640,Leudal,31,PV31,Limburg
0327,GM0327,Leusden,26,PV26,Utrecht
0733,GM0733,Lingewaal,25,PV25,Gelderland
1705,GM1705,Lingewaard,25,PV25,Gelderland
0553,GM0553,Lisse,28,PV28,Zuid-Holland
0262,GM0262,Lochem,25,PV25,Gelderland
0809,GM0809,Loon op Zand,30,PV30,Noord-Brabant
0331,GM0331,Lopik,26,PV26,Utrecht
0024,GM0024,Loppersum,20,PV20,Groningen
0168,GM0168,Losser,23,PV23,Overijssel
0263,GM0263,Maasdriel,25,PV25,Gelderland
1641,GM1641,Maasgouw,31,PV31,Limburg
0556,GM0556,Maassluis,28,PV28,Zuid-Holland
0935,GM0935,Maastricht,31,PV31,Limburg
1663,GM1663,De Marne,20,PV20,Groningen
0025,GM0025,Marum,20,PV20,Groningen
0420,GM0420,Medemblik,27,PV27,Noord-Holland
0938,GM0938,Meerssen,31,PV31,Limburg
1948,GM1948,Meierijstad,30,PV30,Noord-Brabant
0119,GM0119,Meppel,22,PV22,Drenthe
0687,GM0687,Middelburg,29,PV29,Zeeland
1842,GM1842,Midden-Delfland,28,PV28,Zuid-Holland
1731,GM1731,Midden-Drenthe,22,PV22,Drenthe
1952,GM1952,Midden-Groningen,20,PV20,Groningen
0815,GM0815,Mill en Sint Hubert,30,PV30,Noord-Brabant
1709,GM1709,Moerdijk,30,PV30,Noord-Brabant
1927,GM1927,Molenwaard,28,PV28,Zuid-Holland
1955,GM1955,Montferland,25,PV25,Gelderland
0335,GM0335,Montfoort,26,PV26,Utrecht
0944,GM0944,Mook en Middelaar,31,PV31,Limburg
1740,GM1740,Neder-Betuwe,25,PV25,Gelderland
0946,GM0946,Nederweert,31,PV31,Limburg
0304,GM0304,Neerijnen,25,PV25,Gelderland
0356,GM0356,Nieuwegein,26,PV26,Utrecht
0569,GM0569,Nieuwkoop,28,PV28,Zuid-Holland
0267,GM0267,Nijkerk,25,PV25,Gelderland
0268,GM0268,Nijmegen,25,PV25,Gelderland
1930,GM1930,Nissewaard,28,PV28,Zuid-Holland
1695,GM1695,Noord-Beveland,29,PV29,Zeeland
1699,GM1699,Noordenveld,22,PV22,Drenthe
0171,GM0171,Noordoostpolder,24,PV24,Flevoland
0575,GM0575,Noordwijk,28,PV28,Zuid-Holland
0576,GM0576,Noordwijkerhout,28,PV28,Zuid-Holland
0820,GM0820,"Nuenen, Gerwen en Nederwetten",30,PV30,Noord-Brabant
0302,GM0302,Nunspeet,25,PV25,Gelderland
0951,GM0951,Nuth,31,PV31,Limburg
0579,GM0579,Oegstgeest,28,PV28,Zuid-Holland
0823,GM0823,Oirschot,30,PV30,Noord-Brabant
0824,GM0824,Oisterwijk,30,PV30,Noord-Brabant
1895,GM1895,Oldambt,20,PV20,Groningen
0269,GM0269,Oldebroek,25,PV25,Gelderland
0173,GM0173,Oldenzaal,23,PV23,Overijssel
1773,GM1773,Olst-Wijhe,23,PV23,Overijssel
0175,GM0175,Ommen,23,PV23,Overijssel
0881,GM0881,Onderbanken,31,PV31,Limburg
1586,GM1586,Oost Gelre,25,PV25,Gelderland
0826,GM0826,Oosterhout,30,PV30,Noord-Brabant
0085,GM0085,Ooststellingwerf,21,PV21,Friesland
0431,GM0431,Oostzaan,27,PV27,Noord-Holland
0432,GM0432,Opmeer,27,PV27,Noord-Holland
0086,GM0086,Opsterland,21,PV21,Friesland
0828,GM0828,Oss,30,PV30,Noord-Brabant
0584,GM0584,Oud-Beijerland,28,PV28,Zuid-Holland
1509,GM1509,Oude IJsselstreek,25,PV25,Gelderland
0437,GM0437,Ouder-Amstel,27,PV27,Noord-Holland
0589,GM0589,Oudewater,26,PV26,Utrecht
1734,GM1734,Overbetuwe,25,PV25,Gelderland
0590,GM0590,Papendrecht,28,PV28,Zuid-Holland
1894,GM1894,Peel en Maas,31,PV31,Limburg
0765,GM0765,Pekela,20,PV20,Groningen
1926,GM1926,Pijnacker-Nootdorp,28,PV28,Zuid-Holland
0439,GM0439,Purmerend,27,PV27,Noord-Holland
0273,GM0273,Putten,25,PV25,Gelderland
0177,GM0177,Raalte,23,PV23,Overijssel
0703,GM0703,Reimerswaal,29,PV29,Zeeland
0274,GM0274,Renkum,25,PV25,Gelderland
0339,GM0339,Renswoude,26,PV26,Utrecht
1667,GM1667,Reusel-De Mierden,30,PV30,Noord-Brabant
0275,GM0275,Rheden,25,PV25,Gelderland
0340,GM0340,Rhenen,26,PV26,Utrecht
0597,GM0597,Ridderkerk,28,PV28,Zuid-Holland
1742,GM1742,Rijssen-Holten,23,PV23,Overijssel
0603,GM0603,Rijswijk,28,PV28,Zuid-Holland
1669,GM1669,Roerdalen,31,PV31,Limburg
0957,GM0957,Roermond,31,PV31,Limburg
0736,GM0736,De Ronde Venen,26,PV26,Utrecht
1674,GM1674,Roosendaal,30,PV30,Noord-Brabant
0599,GM0599,Rotterdam,28,PV28,Zuid-Holland
0277,GM0277,Rozendaal,25,PV25,Gelderland
0840,GM0840,Rucphen,30,PV30,Noord-Brabant
0441,GM0441,Schagen,27,PV27,Noord-Holland
0279,GM0279,Scherpenzeel,25,PV25,Gelderland
0606,GM0606,Schiedam,28,PV28,Zuid-Holland
0088,GM0088,Schiermonnikoog,21,PV21,Friesland
0962,GM0962,Schinnen,31,PV31,Limburg
1676,GM1676,Schouwen-Duiveland,29,PV29,Zeeland
0965,GM0965,Simpelveld,31,PV31,Limburg
1702,GM1702,Sint Anthonis,30,PV30,Noord-Brabant
0845,GM0845,Sint-Michielsgestel,30,PV30,Noord-Brabant
1883,GM1883,Sittard-Geleen,31,PV31,Limburg
0610,GM0610,Sliedrecht,28,PV28,Zuid-Holland
1714,GM1714,Sluis,29,PV29,Zeeland
0090,GM0090,Smallingerland,21,PV21,Friesland
0342,GM0342,Soest,26,PV26,Utrecht
0847,GM0847,Someren,30,PV30,Noord-Brabant
0848,GM0848,Son en Breugel,30,PV30,Noord-Brabant
0037,GM0037,Stadskanaal,20,PV20,Groningen
0180,GM0180,Staphorst,23,PV23,Overijssel
0532,GM0532,Stede Broec,27,PV27,Noord-Holland
0851,GM0851,Steenbergen,30,PV30,Noord-Brabant
1708,GM1708,Steenwijkerland,23,PV23,Overijssel
0971,GM0971,Stein,31,PV31,Limburg
1904,GM1904,Stichtse Vecht,26,PV26,Utrecht
0617,GM0617,Strijen,28,PV28,Zuid-Holland
1900,GM1900,Súdwest-Fryslân,21,PV21,Friesland
0715,GM0715,Terneuzen,29,PV29,Zeeland
0093,GM0093,Terschelling,21,PV21,Friesland
0448,GM0448,Texel,27,PV27,Noord-Holland
1525,GM1525,Teylingen,28,PV28,Zuid-Holland
0716,GM0716,Tholen,29,PV29,Zeeland
0281,GM0281,Tiel,25,PV25,Gelderland
0855,GM0855,Tilburg,30,PV30,Noord-Brabant
0183,GM0183,Tubbergen,23,PV23,Overijssel
1700,GM1700,Twenterand,23,PV23,Overijssel
1730,GM1730,Tynaarlo,22,PV22,Drenthe
0737,GM0737,Tytsjerksteradiel,21,PV21,Friesland
0856,GM0856,Uden,30,PV30,Noord-Brabant
0450,GM0450,Uitgeest,27,PV27,Noord-Holland
0451,GM0451,Uithoorn,27,PV27,Noord-Holland
0184,GM0184,Urk,24,PV24,Flevoland
0344,GM0344,Utrecht,26,PV26,Utrecht
1581,GM1581,Utrechtse Heuvelrug,26,PV26,Utrecht
0981,GM0981,Vaals,31,PV31,Limburg
0994,GM0994,Valkenburg aan de Geul,31,PV31,Limburg
0858,GM0858,Valkenswaard,30,PV30,Noord-Brabant
0047,GM0047,Veendam,20,PV20,Groningen
0345,GM0345,Veenendaal,26,PV26,Utrecht
0717,GM0717,Veere,29,PV29,Zeeland
0861,GM0861,Veldhoven,30,PV30,Noord-Brabant
0453,GM0453,Velsen,27,PV27,Noord-Holland
0983,GM0983,Venlo,31,PV31,Limburg
0984,GM0984,Venray,31,PV31,Limburg
0620,GM0620,Vianen,26,PV26,Utrecht
0622,GM0622,Vlaardingen,28,PV28,Zuid-Holland
0096,GM0096,Vlieland,21,PV21,Friesland
0718,GM0718,Vlissingen,29,PV29,Zeeland
0986,GM0986,Voerendaal,31,PV31,Limburg
0626,GM0626,Voorschoten,28,PV28,Zuid-Holland
0285,GM0285,Voorst,25,PV25,Gelderland
0865,GM0865,Vught,30,PV30,Noord-Brabant
1949,GM1949,Waadhoeke,21,PV21,Friesland
0866,GM0866,Waalre,30,PV30,Noord-Brabant
0867,GM0867,Waalwijk,30,PV30,Noord-Brabant
0627,GM0627,Waddinxveen,28,PV28,Zuid-Holland
0289,GM0289,Wageningen,25,PV25,Gelderland
0629,GM0629,Wassenaar,28,PV28,Zuid-Holland
0852,GM0852,Waterland,27,PV27,Noord-Holland
0988,GM0988,Weert,31,PV31,Limburg
0457,GM0457,Weesp,27,PV27,Noord-Holland
0870,GM0870,Werkendam,30,PV30,Noord-Brabant
0668,GM0668,West Maas en Waal,25,PV25,Gelderland
1701,GM1701,Westerveld,22,PV22,Drenthe
0293,GM0293,Westervoort,25,PV25,Gelderland
1950,GM1950,Westerwolde,20,PV20,Groningen
1783,GM1783,Westland,28,PV28,Zuid-Holland
0098,GM0098,Weststellingwerf,21,PV21,Friesland
0614,GM0614,Westvoorne,28,PV28,Zuid-Holland
0189,GM0189,Wierden,23,PV23,Overijssel
0296,GM0296,Wijchen,25,PV25,Gelderland
1696,GM1696,Wijdemeren,27,PV27,Noord-Holland
0352,GM0352,Wijk bij Duurstede,26,PV26,Utrecht
0053,GM0053,Winsum,20,PV20,Groningen
0294,GM0294,Winterswijk,25,PV25,Gelderland
0873,GM0873,Woensdrecht,30,PV30,Noord-Brabant
0632,GM0632,Woerden,26,PV26,Utrecht
1690,GM1690,De Wolden,22,PV22,Drenthe
0880,GM0880,Wormerland,27,PV27,Noord-Holland
0351,GM0351,Woudenberg,26,PV26,Utrecht
0874,GM0874,Woudrichem,30,PV30,Noord-Brabant
0479,GM0479,Zaanstad,27,PV27,Noord-Holland
0297,GM0297,Zaltbommel,25,PV25,Gelderland
0473,GM0473,Zandvoort,27,PV27,Noord-Holland
0707,GM0707,Zederik,28,PV28,Zuid-Holland
0050,GM0050,Zeewolde,24,PV24,Flevoland
0355,GM0355,Zeist,26,PV26,Utrecht
0299,GM0299,Zevenaar,25,PV25,Gelderland
0637,GM0637,Zoetermeer,28,PV28,Zuid-Holland
0638,GM0638,Zoeterwoude,28,PV28,Zuid-Holland
0056,GM0056,Zuidhorn,20,PV20,Groningen
1892,GM1892,Zuidplas,28,PV28,Zuid-Holland
0879,GM0879,Zundert,30,PV30,Noord-Brabant
0301,GM0301,Zutphen,25,PV25,Gelderland
1896,GM1896,Zwartewaterland,23,PV23,Overijssel
0642,GM0642,Zwijndrecht,28,PV28,Zuid-Holland
0193,GM0193,Zwolle,23,PV23,Overijssel
